<?xml version="1.0" standalone="no"?>
<!DOCTYPE svg PUBLIC "-//W3C//DTD SVG 20010904//EN"
 "http://www.w3.org/TR/2001/REC-SVG-20010904/DTD/svg10.dtd">
<svg version="1.0" xmlns="http://www.w3.org/2000/svg"
 width="908.000000pt" height="908.000000pt" viewBox="0 0 908.000000 908.000000"
 preserveAspectRatio="xMidYMid meet">
<metadata>
Created by potrace 1.11, written by Peter Selinger 2001-2013
</metadata>
<g transform="translate(0.000000,908.000000) scale(0.100000,-0.100000)"
fill="#000000" stroke="none">
<path d="M3648 8965 c-3 -5 -9 -26 -13 -45 -4 -19 -14 -43 -23 -53 -15 -17
-14 -21 6 -60 20 -36 22 -54 19 -127 -2 -47 1 -98 6 -113 8 -23 5 -34 -12 -57
-23 -32 -27 -60 -10 -77 16 -16 14 -93 -4 -144 -9 -24 -23 -100 -32 -169 -9
-69 -21 -129 -26 -135 -5 -5 -9 -28 -9 -50 0 -38 -18 -171 -41 -305 -6 -30
-15 -85 -21 -122 -10 -63 -13 -68 -42 -77 -39 -13 -241 -52 -281 -56 -16 -1
-50 -7 -75 -13 -25 -5 -79 -13 -120 -17 -41 -3 -151 -20 -245 -37 -93 -16
-201 -34 -240 -39 -38 -6 -99 -17 -135 -25 -36 -8 -90 -19 -120 -24 -30 -5
-93 -16 -140 -25 -47 -9 -116 -20 -155 -25 -38 -5 -113 -18 -165 -30 -52 -12
-129 -26 -170 -31 -41 -5 -82 -12 -90 -15 -8 -3 -46 -9 -85 -14 -191 -24 -230
-40 -218 -89 3 -14 9 -30 13 -36 4 -5 10 -41 14 -80 11 -123 38 -309 47 -330
9 -21 22 -101 39 -244 6 -46 14 -91 19 -100 5 -9 14 -53 21 -98 19 -129 19
-129 -275 -178 -118 -19 -139 -33 -131 -85 3 -19 9 -57 12 -85 4 -27 10 -55
15 -60 4 -6 10 -35 14 -65 13 -113 38 -265 46 -275 10 -14 36 -176 45 -285 3
-47 11 -91 17 -99 6 -7 14 -36 18 -65 4 -28 12 -85 19 -126 6 -41 12 -91 13
-110 2 -19 6 -40 9 -45 3 -6 14 -62 23 -125 9 -63 23 -128 30 -145 8 -16 16
-61 18 -100 6 -92 36 -277 47 -290 4 -5 13 -55 20 -110 14 -123 29 -214 40
-240 9 -22 11 -32 35 -235 9 -74 22 -148 30 -165 7 -16 16 -59 19 -95 9 -99
30 -223 40 -239 5 -7 11 -45 14 -83 3 -38 9 -71 13 -74 5 -3 9 -35 9 -72 0
-40 6 -79 15 -95 8 -16 17 -59 20 -95 2 -37 12 -105 20 -152 8 -47 15 -111 15
-142 0 -31 4 -59 9 -62 7 -5 13 -33 42 -231 15 -97 16 -103 33 -168 9 -32 16
-72 16 -89 0 -39 20 -157 31 -183 4 -11 15 -81 25 -155 9 -74 22 -149 30 -167
7 -17 18 -65 24 -105 26 -169 39 -245 49 -283 6 -22 15 -89 21 -150 6 -60 17
-132 25 -160 7 -27 23 -120 35 -205 12 -85 27 -167 33 -182 l12 -28 267 0
c148 0 268 4 268 8 0 4 -4 12 -9 18 -11 11 -27 100 -41 228 -7 54 -16 106 -20
115 -5 9 -14 57 -20 106 -24 195 -31 240 -40 250 -9 12 -26 115 -40 251 -6 53
-13 101 -17 108 -8 11 -38 162 -49 246 -4 25 -10 50 -14 55 -8 10 -21 86 -40
220 -6 44 -15 89 -20 100 -4 11 -16 70 -25 130 -17 107 -23 146 -44 250 -6 28
-20 109 -31 180 -11 72 -27 171 -36 220 -8 50 -20 128 -27 175 -7 47 -15 90
-19 96 -4 6 -16 75 -28 155 -11 79 -24 153 -29 164 -5 11 -19 88 -31 170 -12
83 -26 157 -30 165 -4 8 -11 44 -15 80 -4 36 -16 115 -27 175 -10 61 -30 180
-43 265 -14 85 -31 178 -39 205 -8 28 -22 100 -31 160 -9 61 -20 119 -25 130
-4 11 -16 72 -25 135 -9 63 -21 138 -26 165 -6 28 -15 79 -20 115 -20 134 -41
256 -50 290 -12 47 -37 192 -45 265 -3 33 -10 67 -14 75 -4 8 -18 92 -30 185
-12 94 -28 190 -35 215 -8 25 -21 101 -30 170 -9 69 -23 143 -30 165 -8 22
-21 91 -30 154 -8 62 -19 121 -24 130 -5 9 -11 48 -15 86 -12 129 -37 300 -47
321 -6 11 -9 38 -7 60 l3 39 130 26 c72 15 163 34 203 43 40 9 96 16 124 16
27 0 73 6 101 14 29 7 81 19 117 26 36 6 72 13 80 15 8 1 65 10 125 19 61 9
144 24 185 33 131 27 241 46 510 88 158 24 321 53 339 60 15 7 151 23 231 28
l35 2 -2 -88 c0 -48 -5 -95 -9 -105 -4 -9 -13 -53 -19 -96 -11 -89 -30 -113
-63 -83 -25 23 -32 21 -32 -7 0 -13 -7 -29 -15 -36 -11 -9 -14 -25 -9 -64 3
-28 0 -94 -6 -146 -6 -52 -15 -140 -20 -195 -5 -55 -16 -113 -24 -130 -7 -16
-22 -57 -32 -90 -10 -33 -23 -67 -29 -75 -6 -8 -16 -27 -23 -42 -6 -15 -25
-37 -41 -49 -30 -22 -40 -52 -22 -64 5 -3 12 -19 16 -35 4 -17 13 -44 22 -60
25 -51 2 -109 -79 -193 -15 -16 -28 -32 -30 -36 -8 -18 -110 -86 -178 -118
-112 -53 -112 -53 -105 -143 8 -90 -8 -191 -36 -230 -19 -25 -21 -41 -19 -211
0 -101 2 -191 3 -199 5 -40 -17 -135 -39 -167 -26 -39 -30 -82 -24 -294 2
-101 1 -108 -29 -167 -17 -34 -31 -74 -31 -90 0 -16 -7 -43 -16 -60 -12 -25
-15 -67 -15 -202 0 -95 -4 -178 -9 -188 -26 -45 -33 -88 -35 -227 -4 -174 -13
-275 -27 -292 -16 -20 27 -72 56 -69 39 5 46 15 46 72 0 83 9 94 81 94 33 0
70 5 82 12 12 7 54 13 92 13 54 0 83 6 125 27 91 43 94 43 113 3 12 -25 17
-62 17 -121 0 -63 3 -85 12 -82 9 3 13 47 14 154 4 339 15 631 24 664 5 19 12
195 15 390 12 784 12 793 37 811 40 31 129 42 266 35 158 -8 189 -14 197 -34
4 -10 9 -73 12 -142 4 -123 7 -139 19 -127 11 11 6 259 -5 270 -16 16 -15 272
1 297 10 15 10 26 0 53 -15 42 -16 119 0 135 8 8 8 15 -2 27 -11 13 -8 22 19
55 17 21 31 48 31 59 0 30 19 35 29 8 8 -21 19 -26 65 -31 31 -4 58 -11 61
-16 3 -4 23 -11 45 -15 23 -4 54 -14 71 -22 17 -9 65 -19 107 -24 45 -5 87
-16 102 -26 14 -10 50 -26 80 -36 52 -18 129 -48 178 -70 12 -6 22 -16 22 -23
0 -6 9 -14 20 -17 21 -5 20 -1 25 -157 1 -25 7 -55 14 -68 9 -17 13 -89 12
-265 0 -211 2 -245 17 -267 22 -32 32 -321 12 -345 -18 -22 -47 -18 -64 7 -18
25 -22 172 -7 198 6 8 7 19 3 25 -8 12 -8 17 -10 69 -1 22 -5 36 -9 33 -9 -10
-17 -1000 -8 -1113 5 -71 10 -94 21 -94 17 0 20 85 4 95 -14 9 -13 98 2 130 9
21 9 31 0 46 -16 25 -17 380 -1 396 8 8 8 20 -1 45 -11 29 -10 39 4 64 45 82
71 83 80 2 4 -29 10 -110 14 -179 4 -75 12 -132 19 -141 7 -8 10 -25 7 -39 -7
-29 -7 -53 2 -145 4 -49 3 -73 -5 -78 -7 -5 -8 -13 -2 -25 6 -10 6 -23 0 -32
-14 -22 -10 -92 6 -113 8 -11 16 -16 16 -10 10 58 12 441 3 455 -3 6 -6 63 -5
127 0 80 -4 123 -13 137 -9 14 -15 87 -21 240 -4 133 -12 228 -19 240 -7 14
-11 103 -11 282 0 196 -3 265 -12 274 -9 9 -13 50 -13 129 l0 116 45 39 c54
47 50 54 -57 105 -40 19 -77 41 -81 48 -5 8 -37 26 -71 41 -34 16 -75 43 -91
60 -17 18 -50 48 -74 67 -65 51 -87 97 -112 237 -12 67 -25 127 -29 132 -4 6
-10 35 -14 65 -11 92 -18 120 -28 120 -33 0 58 -441 103 -500 41 -53 132 -140
169 -160 19 -10 49 -30 65 -44 25 -21 27 -27 16 -35 -22 -14 -109 -1 -169 26
-29 13 -59 23 -67 23 -9 0 -34 9 -58 19 -23 11 -70 29 -105 40 -34 11 -68 24
-75 28 -20 13 -77 32 -154 53 -73 19 -123 44 -123 62 0 5 9 30 21 55 29 63 40
153 42 318 0 112 -19 1049 -28 1335 -1 36 -3 136 -5 223 -1 86 -7 160 -11 163
-12 7 -11 115 1 134 16 25 29 -1 46 -86 15 -78 20 -106 51 -279 9 -49 19 -94
23 -100 4 -5 15 -50 24 -100 10 -49 24 -110 31 -135 8 -25 19 -85 25 -135 15
-124 31 -205 41 -211 5 -3 9 -19 9 -36 0 -17 5 -60 11 -97 5 -36 15 -97 21
-136 5 -38 14 -79 18 -90 4 -11 15 -75 24 -143 19 -137 22 -148 42 -156 12 -4
13 7 8 67 -4 40 -10 76 -15 81 -5 6 -9 26 -9 45 0 41 -38 257 -50 286 -5 11
-11 40 -15 65 -4 25 -10 68 -15 95 -5 28 -12 79 -16 115 -4 36 -11 70 -16 76
-12 17 -14 102 -2 114 10 10 41 17 164 39 63 11 311 51 395 63 39 5 140 24
225 40 85 17 202 36 259 44 58 7 118 18 135 24 17 5 90 19 161 30 234 35 319
49 365 59 25 5 77 15 115 21 90 15 122 27 107 42 -18 18 -249 -10 -427 -51
-22 -5 -92 -17 -155 -25 -63 -9 -149 -23 -190 -30 -41 -8 -106 -20 -145 -27
-38 -6 -95 -18 -125 -25 -30 -7 -89 -16 -130 -19 -41 -4 -147 -20 -235 -36
-312 -56 -523 -83 -540 -69 -7 6 -16 29 -19 52 -4 23 -11 47 -15 53 -5 5 -18
64 -30 130 -12 66 -26 129 -31 140 -5 11 -16 74 -25 140 -10 66 -23 138 -31
160 -7 22 -16 58 -19 80 -4 22 -12 55 -18 72 -9 27 -8 39 6 69 19 38 15 67
-11 97 -13 14 -13 24 -4 54 8 25 8 42 1 55 -6 11 -8 31 -5 44 5 17 0 33 -14
51 -26 33 -25 45 5 73 30 28 31 37 6 64 -11 12 -24 44 -28 71 -5 28 -11 46
-15 40z m5 -853 c3 -20 7 -172 8 -337 3 -442 4 -462 18 -478 8 -10 9 -17 1
-22 -14 -8 -14 -461 0 -470 13 -8 13 -52 -1 -61 -8 -4 -8 -9 0 -17 14 -14 14
-60 -1 -75 -8 -8 -8 -15 2 -27 17 -20 17 -439 1 -459 -6 -7 -15 -39 -21 -71
-21 -112 -23 -120 -33 -133 -6 -7 -24 -12 -41 -10 -28 3 -31 0 -34 -26 -2 -16
2 -40 9 -52 10 -20 18 -23 49 -18 51 8 65 -11 55 -79 -5 -28 -9 -168 -11 -311
-2 -203 -5 -261 -16 -267 -18 -12 -75 -11 -99 1 -25 14 -24 32 6 76 21 31 25
48 25 110 0 57 3 74 14 74 16 0 26 21 26 56 0 24 -14 32 -25 14 -7 -11 -42 6
-62 30 -10 12 -12 8 -13 -26 0 -22 6 -49 14 -60 11 -14 11 -22 3 -32 -8 -10
-7 -19 2 -34 10 -16 10 -23 -3 -37 -11 -12 -16 -37 -16 -73 0 -38 -5 -60 -15
-68 -10 -9 -52 -14 -118 -15 -66 -2 -115 -8 -140 -18 -68 -29 -67 -34 -61 241
3 136 7 253 10 260 6 21 33 13 64 -20 l29 -33 1 -162 c0 -90 4 -163 9 -163 15
0 18 45 13 220 -5 169 -5 172 -28 181 -32 12 -30 25 6 44 40 21 49 19 60 -10
12 -33 25 -32 51 4 18 25 26 29 55 24 20 -3 34 -1 34 5 0 30 -152 31 -211 1
-22 -11 -50 -19 -62 -17 -21 3 -22 8 -22 108 0 58 4 117 8 132 10 36 91 84
121 70 11 -5 66 -7 123 -4 l102 5 6 -37 c8 -39 21 -43 39 -10 6 10 21 32 34
47 31 40 28 52 -20 84 -49 33 -108 128 -133 213 -9 30 -21 65 -26 76 -7 14 -8
28 -1 40 10 20 20 105 27 244 8 150 26 324 35 345 5 11 14 92 20 180 6 88 18
214 26 280 8 66 21 183 29 260 19 185 36 327 40 342 8 24 33 1 38 -35z m-291
-1643 c4 -13 11 -42 16 -64 23 -92 43 -155 53 -161 18 -11 20 2 4 32 -8 16
-15 42 -15 58 0 25 2 27 16 15 9 -8 25 -34 36 -59 11 -25 26 -53 35 -62 13
-15 13 -20 3 -33 -12 -14 -15 -14 -38 1 -24 16 -26 16 -39 -2 -11 -16 -25 -19
-76 -16 -66 3 -78 8 -79 38 -1 37 33 239 44 262 14 27 31 24 40 -9z m-97 -189
c3 -5 1 -17 -4 -27 -5 -10 -12 -30 -16 -45 -3 -17 -12 -28 -21 -28 -13 0 -15
7 -9 37 11 62 33 90 50 63z m-111 -909 c-4 -108 -10 -200 -15 -205 -4 -5 -2
-19 4 -33 8 -18 8 -29 -1 -44 -14 -23 -16 -165 -2 -174 12 -8 13 -62 2 -69 -5
-3 -12 -74 -15 -158 -3 -84 -10 -166 -15 -182 l-8 -30 -17 24 c-9 14 -17 36
-17 51 0 50 -23 54 -87 16 -50 -29 -58 -37 -55 -60 1 -15 3 -39 5 -54 2 -23
-4 -30 -34 -45 -20 -9 -48 -20 -63 -24 l-26 -6 0 152 c0 98 -4 149 -10 145 -6
-4 -10 -55 -10 -119 0 -116 -16 -186 -43 -186 -28 1 -45 27 -46 70 -1 25 -2
54 -2 65 -3 68 15 170 37 220 26 56 26 58 23 278 -3 183 -1 227 11 252 8 17
22 30 30 30 17 0 17 -15 0 -338 -6 -130 -7 -214 -1 -225 14 -25 19 23 26 243
4 105 10 195 14 200 5 6 9 61 10 123 2 107 1 114 -18 119 -28 7 -27 33 0 33
12 0 30 10 40 22 18 20 35 25 151 44 24 4 43 2 53 -6 9 -7 19 -10 23 -6 4 4
-5 18 -20 30 -33 26 -36 40 -8 33 11 -3 30 3 43 13 43 35 47 15 41 -199z m-40
-948 c9 -42 -2 -475 -12 -485 -12 -12 -42 1 -42 18 0 18 -9 18 -32 -3 -16 -14
-18 -35 -18 -200 0 -100 3 -183 7 -183 4 0 17 12 28 27 l22 26 23 -23 c21 -21
22 -28 16 -89 -8 -71 -26 -101 -61 -101 -13 0 -40 -7 -61 -16 -50 -22 -159
-45 -177 -38 -12 4 -13 73 -9 407 2 221 7 433 10 471 l7 70 47 27 c26 15 80
42 120 59 40 18 80 38 88 46 22 21 38 17 44 -13z m-336 -105 c15 -15 16 -50 1
-65 -8 -8 -13 -142 -16 -455 -2 -244 -8 -447 -13 -452 -5 -5 -31 -11 -57 -13
-37 -4 -52 -1 -62 11 -19 23 -22 259 -4 305 10 25 12 80 10 218 -4 167 -2 188
15 221 18 35 29 79 44 177 4 22 11 46 17 53 12 15 49 16 65 0z m308 -436 c-22
-5 -30 3 -21 18 5 8 11 7 22 -2 15 -12 14 -13 -1 -16z m-2 -38 c35 -13 12 -50
-24 -39 -22 7 -27 31 -7 38 6 3 13 6 14 6 1 1 8 -2 17 -5z m16 -109 c0 -23 -6
-38 -16 -42 -23 -8 -33 8 -27 45 4 23 11 32 24 32 15 0 19 -7 19 -35z"/>
<path d="M3434 6005 c-4 -10 2 -25 15 -38 l22 -22 -3 34 c-3 37 -24 53 -34 26z"/>
<path d="M3287 6003 c-9 -15 -6 -173 4 -173 5 0 9 8 10 18 6 118 5 162 -2 162
-4 0 -10 -3 -12 -7z"/>
<path d="M3535 5746 c-19 -14 -19 -15 5 -62 28 -55 54 -68 64 -32 4 16 0 28
-14 40 -21 17 -27 48 -10 48 6 0 10 5 10 10 0 15 -33 12 -55 -4z"/>
<path d="M2947 5343 c-16 -3 -26 -10 -24 -16 4 -11 25 -12 55 -2 13 5 17 26 5
24 -5 -1 -21 -4 -36 -6z"/>
<path d="M2976 5201 c-32 -51 -32 -64 -1 -105 17 -23 25 -46 25 -74 0 -32 5
-44 26 -59 35 -26 26 -54 -29 -90 -22 -16 -44 -39 -48 -53 -9 -33 -10 -125 -3
-172 6 -32 11 -38 31 -38 46 0 80 26 87 67 12 73 11 76 -34 68 -36 -6 -40 -5
-40 13 0 13 13 27 36 39 47 23 74 91 53 130 -10 19 -10 28 -1 43 32 52 -12
262 -56 268 -15 2 -28 -7 -46 -37z"/>
<path d="M2916 4984 c-3 -9 -6 -27 -6 -41 0 -39 25 -22 28 20 3 37 -11 50 -22
21z"/>
<path d="M2932 4010 c-6 -11 -12 -27 -12 -36 0 -9 -11 -29 -25 -46 -14 -16
-25 -40 -25 -53 0 -13 -3 -31 -6 -40 -6 -13 -1 -16 22 -13 26 3 29 8 45 75 17
75 32 103 55 103 8 0 14 7 14 15 0 23 -53 19 -68 -5z"/>
<path d="M2905 3770 c-3 -5 -1 -10 4 -10 6 0 11 5 11 10 0 6 -2 10 -4 10 -3 0
-8 -4 -11 -10z"/>
<path d="M2871 3721 c-19 -12 -4 -31 25 -31 19 0 25 5 22 17 -4 20 -27 27 -47
14z"/>
<path d="M2860 3640 c0 -5 11 -10 25 -10 14 0 25 5 25 10 0 6 -11 10 -25 10
-14 0 -25 -4 -25 -10z"/>
<path d="M2860 3576 c0 -8 4 -17 9 -20 11 -7 33 18 24 27 -12 12 -33 7 -33 -7z"/>
<path d="M3010 3535 c0 -8 5 -15 10 -15 6 0 10 7 10 15 0 8 -4 15 -10 15 -5 0
-10 -7 -10 -15z"/>
<path d="M2854 3525 c-3 -8 -3 -19 1 -25 10 -16 45 7 39 25 -8 19 -33 19 -40
0z"/>
<path d="M6695 7969 c-55 -11 -129 -26 -165 -34 -36 -8 -103 -19 -150 -25
-212 -28 -490 -79 -508 -93 -8 -7 -9 -14 -3 -20 14 -14 154 5 456 59 138 24
266 44 285 44 19 0 51 5 70 10 63 19 127 29 148 23 26 -6 29 -14 59 -153 33
-155 38 -180 57 -290 9 -52 21 -104 26 -115 5 -11 19 -76 30 -145 11 -69 24
-136 29 -150 5 -14 17 -77 26 -140 9 -63 23 -137 30 -165 15 -52 43 -208 52
-285 2 -25 8 -54 13 -65 4 -11 18 -94 31 -185 12 -91 26 -170 30 -176 5 -6 13
-55 19 -110 11 -106 27 -197 40 -229 5 -11 18 -83 30 -160 11 -77 27 -162 35
-190 17 -62 35 -171 35 -215 0 -17 6 -46 14 -63 8 -18 16 -50 19 -72 11 -82
38 -231 47 -255 5 -14 19 -90 30 -170 11 -80 25 -154 30 -165 5 -11 14 -62 20
-114 6 -51 15 -102 20 -112 6 -10 10 -33 10 -51 0 -19 4 -38 9 -43 5 -6 15
-46 21 -90 16 -107 38 -244 44 -275 3 -14 15 -81 26 -149 11 -69 24 -129 30
-135 5 -5 10 -22 10 -37 0 -48 40 -323 50 -341 5 -9 14 -56 20 -105 15 -124
31 -216 40 -228 4 -5 11 -46 15 -90 4 -44 11 -87 16 -96 5 -9 11 -49 14 -88 2
-39 9 -79 15 -88 6 -10 21 -92 34 -183 14 -91 31 -196 39 -235 8 -38 20 -104
27 -145 6 -41 16 -83 21 -93 8 -15 26 -125 46 -292 3 -22 9 -44 13 -50 4 -5
13 -48 19 -95 20 -156 30 -211 41 -225 5 -5 10 -29 11 -53 3 -33 -1 -45 -16
-56 -11 -7 -83 -23 -160 -35 -191 -29 -252 -41 -305 -56 -25 -8 -94 -21 -155
-30 -114 -17 -350 -59 -420 -74 -74 -17 -150 -30 -202 -36 -29 -3 -110 -17
-180 -31 -202 -41 -273 -54 -343 -63 -36 -5 -128 -22 -206 -39 -77 -17 -183
-35 -235 -41 -52 -7 -159 -25 -239 -40 -80 -16 -179 -34 -220 -41 -69 -11
-318 -57 -700 -130 -219 -42 -324 -60 -410 -71 -83 -10 -142 -21 -210 -37 -64
-16 -222 -42 -311 -52 -42 -5 -94 -13 -115 -19 -69 -18 -246 -51 -359 -66 -60
-9 -126 -20 -145 -25 -71 -19 -248 -52 -345 -65 -84 -10 288 -13 2303 -14
l2402 -1 -4 23 c-3 12 -10 54 -16 92 -6 39 -15 79 -20 90 -5 11 -16 76 -26
145 -9 69 -23 138 -30 154 -8 16 -14 37 -14 46 0 10 -7 34 -15 53 -19 46 -20
150 -1 166 7 6 40 16 72 21 117 21 211 39 314 59 58 12 123 24 145 26 22 3 56
12 75 19 19 7 61 17 93 20 l57 7 0 44 c0 23 -7 56 -15 71 -8 16 -15 40 -15 53
0 40 -31 235 -41 253 -5 9 -14 59 -20 110 -6 51 -18 125 -26 163 -8 39 -25
138 -38 220 -14 83 -29 158 -35 168 -6 10 -18 67 -26 125 -7 59 -18 127 -24
152 -17 82 -30 154 -46 259 -8 56 -19 110 -24 120 -5 9 -18 90 -30 181 -12 91
-26 173 -31 182 -5 10 -13 46 -18 80 -5 35 -15 99 -22 143 -6 44 -15 84 -20
90 -5 5 -9 25 -10 45 0 19 -11 96 -25 170 -27 149 -37 208 -60 355 -9 55 -19
105 -24 110 -4 6 -11 39 -14 75 -9 81 -34 218 -46 245 -4 11 -13 54 -19 95
-23 152 -40 247 -56 309 -8 35 -20 96 -25 135 -6 39 -14 80 -19 91 -5 11 -20
90 -34 175 -14 85 -32 188 -41 229 -9 41 -20 117 -25 169 -6 52 -15 100 -21
106 -5 5 -10 25 -10 43 0 45 -39 283 -51 308 -5 11 -13 49 -18 85 -21 146 -33
216 -42 235 -5 11 -18 86 -29 167 -11 81 -24 157 -29 170 -5 13 -19 90 -31
173 -12 82 -25 154 -30 160 -5 5 -13 46 -20 90 -6 44 -18 112 -26 150 -8 39
-28 138 -43 220 -15 83 -32 161 -38 175 -6 15 -14 57 -18 95 -8 88 -25 177
-35 190 -5 6 -10 26 -12 45 -3 35 -4 35 -53 37 -27 1 -95 -7 -150 -18z"/>
<path d="M3336 7143 c-12 -12 -6 -43 9 -43 8 0 15 9 15 19 0 21 -13 34 -24 24z"/>
<path d="M4115 5590 c-11 -17 5 -32 21 -19 8 6 14 15 14 20 0 12 -27 11 -35
-1z"/>
<path d="M3830 5560 c0 -5 5 -10 10 -10 6 0 10 5 10 10 0 6 -4 10 -10 10 -5 0
-10 -4 -10 -10z"/>
<path d="M3977 5549 c-16 -22 -14 -39 3 -39 5 0 14 9 21 21 16 31 -4 47 -24
18z"/>
<path d="M4214 5545 c-7 -18 3 -35 22 -35 8 0 14 10 14 25 0 27 -27 35 -36 10z"/>
<path d="M4100 5485 c-10 -12 -9 -16 3 -21 20 -7 37 3 37 22 0 18 -24 18 -40
-1z"/>
<path d="M4486 5455 c-3 -8 -1 -25 4 -37 8 -20 9 -18 9 15 1 39 -3 47 -13 22z"/>
<path d="M4346 5423 c-8 -9 14 -33 30 -33 8 0 14 4 14 10 0 12 -35 31 -44 23z"/>
<path d="M3846 5405 c-26 -26 -36 -85 -36 -209 0 -101 3 -121 18 -132 9 -7 24
-14 33 -14 21 0 79 -65 79 -88 0 -31 -32 -42 -76 -27 -26 9 -45 10 -56 4 -19
-10 -23 -45 -8 -69 5 -9 5 -19 -1 -26 -12 -15 25 -44 57 -44 13 0 36 -11 52
-25 38 -32 42 -31 42 4 0 16 11 40 26 56 14 15 28 42 31 59 4 26 0 34 -24 48
-27 16 -29 22 -41 124 -9 76 -19 116 -33 136 -11 15 -21 40 -22 55 -2 26 1 28
33 28 19 -1 45 -4 58 -9 22 -7 23 -6 20 35 -3 44 -6 48 -92 93 -36 20 -41 20
-60 1z"/>
<path d="M4010 5401 c0 -5 6 -14 14 -20 16 -13 32 2 21 19 -8 12 -35 13 -35 1z"/>
<path d="M4489 5348 c-8 -24 3 -238 12 -238 11 0 11 221 0 239 -7 10 -9 10
-12 -1z"/>
<path d="M4228 5296 c-32 -31 -35 -40 -41 -111 -4 -43 -7 -105 -7 -137 0 -56
2 -60 32 -76 17 -9 41 -27 53 -39 12 -13 26 -23 30 -23 9 0 -5 102 -16 115 -5
5 -9 26 -9 46 0 28 6 42 22 53 19 13 22 26 25 93 1 43 0 86 -3 96 -9 27 -48
20 -86 -17z"/>
<path d="M3276 5102 c-3 -6 -6 -92 -5 -191 0 -131 4 -181 12 -181 9 0 12 50
12 184 0 172 -4 212 -19 188z"/>
<path d="M3570 5075 c0 -8 7 -15 15 -15 8 0 15 7 15 15 0 8 -7 15 -15 15 -8 0
-15 -7 -15 -15z"/>
<path d="M4497 5073 c-11 -10 -8 -96 3 -113 7 -11 10 5 10 53 0 67 -1 73 -13
60z"/>
<path d="M3490 5030 c0 -16 5 -30 10 -30 6 0 10 14 10 30 0 17 -4 30 -10 30
-5 0 -10 -13 -10 -30z"/>
<path d="M3562 4968 c-8 -21 -8 -36 -2 -42 13 -13 13 -83 0 -91 -14 -8 -13
-52 2 -61 6 -4 17 1 25 11 18 26 19 215 0 215 -7 0 -18 -14 -25 -32z"/>
<path d="M4330 4950 c0 -5 5 -10 10 -10 6 0 10 5 10 10 0 6 -4 10 -10 10 -5 0
-10 -4 -10 -10z"/>
<path d="M4503 4855 c0 -22 2 -30 4 -17 2 12 2 30 0 40 -3 9 -5 -1 -4 -23z"/>
<path d="M3664 4826 c-8 -22 0 -81 11 -81 6 0 11 21 13 48 3 45 -12 65 -24 33z"/>
<path d="M4182 4828 c-28 -28 -10 -104 26 -113 15 -4 35 -14 44 -22 16 -14 18
-13 30 13 7 16 20 40 30 53 31 42 24 58 -32 70 -65 14 -83 14 -98 -1z"/>
<path d="M3488 4724 c-4 -34 3 -50 16 -37 9 10 7 73 -3 73 -5 0 -11 -16 -13
-36z"/>
<path d="M3801 4674 c-15 -35 -4 -48 65 -74 93 -34 155 -21 139 30 -9 28 -41
47 -95 55 -25 3 -57 8 -71 11 -20 4 -28 -1 -38 -22z"/>
<path d="M3657 4660 c-4 -15 -13 -20 -42 -20 -29 0 -36 -3 -33 -17 2 -10 14
-19 28 -21 39 -6 80 -50 80 -87 0 -17 -5 -36 -10 -41 -7 -7 -9 -82 -6 -220 7
-291 7 -282 0 -357 -3 -37 -2 -73 3 -80 16 -21 0 -211 -19 -234 -6 -7 -25 -13
-43 -13 -18 0 -56 -10 -84 -21 -47 -20 -55 -21 -94 -8 -54 18 -220 17 -241 0
-26 -22 -19 -34 17 -27 130 24 150 25 191 9 71 -28 75 -35 78 -136 2 -61 7
-92 16 -95 9 -3 12 18 12 82 0 109 17 133 102 145 31 4 63 12 70 19 18 14 74
-12 81 -38 3 -11 18 -21 38 -25 19 -3 68 -17 109 -30 41 -12 100 -28 130 -35
30 -7 69 -17 85 -22 56 -17 237 -49 243 -43 10 10 -21 25 -53 25 -16 0 -37 5
-45 11 -11 7 4 9 53 4 40 -4 67 -3 67 3 0 13 -43 28 -120 40 -36 6 -114 22
-175 36 -60 14 -118 26 -127 26 -10 0 -26 4 -36 9 -22 13 -151 51 -171 51 -9
0 -24 7 -33 14 -16 11 -18 38 -19 242 -2 335 2 697 7 706 11 18 40 6 56 -22
18 -32 52 -40 62 -15 9 24 44 18 62 -11 16 -23 21 -25 70 -18 38 4 54 3 54 -5
0 -21 45 -34 70 -21 20 11 25 9 44 -15 20 -25 26 -27 63 -20 35 5 45 3 63 -15
18 -18 29 -21 62 -16 35 6 43 3 70 -24 17 -17 35 -29 42 -27 14 5 16 85 2 95
-10 8 -103 32 -201 51 -22 5 -60 16 -85 25 -25 10 -65 21 -90 26 -40 8 -136
30 -257 58 -26 6 -43 6 -43 1 0 -5 -16 6 -35 25 -19 20 -35 44 -35 54 0 11 -6
25 -14 31 -11 9 -15 7 -19 -9z m381 -1206 c12 -4 22 -10 22 -15 0 -13 -41 -10
-75 6 l-30 13 30 1 c17 0 40 -2 53 -5z"/>
<path d="M3320 4621 c0 -11 106 -25 120 -16 6 4 8 11 5 16 -8 12 -125 12 -125
0z"/>
<path d="M4193 4623 c-7 -2 -13 -22 -13 -43 0 -35 3 -39 45 -59 64 -30 90 -28
109 10 14 28 14 33 -1 56 -9 14 -27 29 -40 34 -26 10 -80 11 -100 2z"/>
<path d="M3194 4606 c-17 -13 -17 -15 -2 -21 18 -7 58 10 58 25 0 15 -33 12
-56 -4z"/>
<path d="M3416 4504 c-13 -100 -3 -166 23 -150 14 9 14 59 0 73 -7 7 -8 19 -4
30 12 28 11 86 -1 90 -7 2 -14 -15 -18 -43z"/>
<path d="M3257 4523 c-11 -11 -8 -151 4 -158 18 -12 23 3 26 74 2 48 -2 72
-11 80 -7 6 -16 8 -19 4z"/>
<path d="M3537 4482 c-25 -28 -21 -31 33 -29 55 2 59 6 32 30 -24 22 -45 21
-65 -1z"/>
<path d="M3562 4348 c-15 -15 -16 -65 -1 -74 19 -11 37 19 32 54 -6 34 -12 39
-31 20z"/>
<path d="M3212 4309 c-13 -5 -20 -13 -17 -19 8 -13 42 -13 51 1 10 17 -9 28
-34 18z"/>
<path d="M3425 4247 c-10 -40 -1 -160 13 -165 9 -3 12 20 12 92 0 91 -12 126
-25 73z"/>
<path d="M3800 4185 c-14 -16 -14 -16 15 -21 11 -1 30 -6 43 -10 15 -4 22 -2
22 8 0 35 -56 52 -80 23z"/>
<path d="M3536 4174 c-3 -9 -6 -29 -6 -45 0 -22 6 -32 26 -39 39 -15 44 -13
44 23 0 55 -10 77 -35 77 -13 0 -26 -7 -29 -16z"/>
<path d="M3968 4173 c-34 -9 -23 -26 25 -37 25 -6 28 -4 25 16 -3 23 -19 30
-50 21z"/>
<path d="M4185 4109 c-9 -14 -4 -18 34 -25 32 -7 33 -6 22 15 -12 22 -45 28
-56 10z"/>
<path d="M3255 4076 c-10 -14 -28 -29 -41 -32 -33 -8 -30 -20 6 -27 l30 -6 2
-168 c3 -141 5 -168 18 -168 13 0 15 26 17 165 2 171 3 173 47 195 7 3 7 7 -2
11 -7 3 -24 17 -36 31 l-24 26 -17 -27z"/>
<path d="M4321 4081 c-21 -13 -4 -31 30 -31 24 0 30 4 27 18 -4 19 -36 27 -57
13z"/>
<path d="M3887 4033 c-2 -4 -6 -62 -8 -127 -3 -83 -1 -120 7 -123 7 -2 15 13
19 34 3 21 13 48 21 61 10 16 14 43 12 90 -3 60 -5 67 -25 70 -11 2 -23 0 -26
-5z"/>
<path d="M3427 4013 c-12 -11 -7 -352 5 -359 5 -4 13 -1 17 5 6 8 7 290 2 354
-1 9 -15 9 -24 0z"/>
<path d="M4027 3984 c-4 -4 -7 -74 -7 -156 0 -137 1 -149 18 -146 15 3 17 18
17 145 0 132 -8 176 -28 157z"/>
<path d="M3536 3952 c-9 -8 -7 -135 2 -149 4 -6 19 -9 35 -6 28 5 28 6 25 76
-3 67 -4 71 -30 78 -15 4 -29 4 -32 1z"/>
<path d="M4152 3928 c-15 -15 -15 -41 0 -56 20 -20 28 -14 28 22 0 39 -11 51
-28 34z"/>
<path d="M4247 3913 c-11 -10 -8 -91 3 -98 6 -4 10 15 10 49 0 57 -1 61 -13
49z"/>
<path d="M4375 3897 c-8 -30 12 -74 27 -59 13 13 6 74 -9 79 -7 3 -15 -7 -18
-20z"/>
<path d="M4292 3884 c4 -21 22 -23 26 -1 2 10 -3 17 -13 17 -10 0 -15 -6 -13
-16z"/>
<path d="M4245 3730 c-3 -5 -1 -10 4 -10 6 0 11 5 11 10 0 6 -2 10 -4 10 -3 0
-8 -4 -11 -10z"/>
<path d="M6178 3725 c-3 -3 -52 -14 -109 -25 -128 -23 -288 -56 -311 -65 -10
-4 -18 -15 -18 -24 0 -9 -5 -22 -11 -28 -6 -6 -15 -59 -20 -119 -5 -60 -12
-117 -15 -126 -10 -31 14 -58 51 -58 51 0 64 -9 71 -48 4 -21 10 -42 15 -47 4
-6 12 -44 18 -85 5 -41 15 -103 20 -136 6 -34 12 -74 12 -90 1 -16 8 -44 16
-63 8 -18 24 -78 34 -132 10 -54 28 -145 39 -201 11 -57 20 -118 20 -136 0
-19 6 -48 14 -65 8 -18 16 -41 18 -52 4 -25 28 -25 173 4 272 53 326 68 454
127 91 42 169 93 198 131 79 99 93 119 93 127 0 5 12 24 26 43 14 18 32 55 40
81 9 26 19 56 24 67 19 44 30 132 30 243 0 95 -4 124 -19 152 -10 19 -25 60
-34 90 -15 51 -77 147 -144 223 -51 58 -128 110 -255 173 -16 8 -41 21 -57 29
-23 12 -67 15 -198 15 -93 0 -172 -2 -175 -5z m254 -385 c18 -11 40 -23 48
-26 26 -12 100 -75 100 -86 0 -6 13 -25 29 -44 37 -41 48 -117 32 -214 -19
-116 -78 -195 -188 -251 -94 -48 -116 -40 -128 51 -4 30 -11 61 -15 70 -5 8
-13 47 -20 85 -16 100 -32 169 -42 180 -4 5 -8 23 -8 40 0 16 -5 65 -12 109
-12 78 -12 79 13 99 21 17 33 18 91 13 40 -4 81 -14 100 -26z"/>
<path d="M4240 3650 c0 -5 5 -10 10 -10 6 0 10 5 10 10 0 6 -4 10 -10 10 -5 0
-10 -4 -10 -10z"/>
<path d="M5545 3608 c-202 -36 -213 -39 -219 -53 -3 -8 -1 -29 5 -47 5 -18 9
-43 9 -56 0 -13 6 -38 14 -55 13 -29 25 -91 42 -207 3 -25 12 -54 18 -65 16
-25 27 -127 16 -145 -15 -24 -69 14 -128 87 -123 153 -392 423 -421 423 -9 -1
-34 -7 -56 -15 -22 -8 -53 -15 -70 -15 -58 -1 -220 -39 -231 -55 -7 -9 -15
-73 -19 -143 -4 -70 -11 -137 -16 -150 -15 -39 5 -62 46 -55 44 7 63 -8 70
-56 9 -52 26 -123 35 -146 5 -11 11 -51 14 -90 3 -38 10 -95 15 -125 6 -30 13
-77 17 -105 4 -27 10 -54 14 -60 4 -5 11 -30 15 -55 4 -25 11 -50 17 -57 5 -6
8 -22 6 -35 -4 -31 12 -140 22 -153 9 -12 25 -103 22 -129 -1 -10 5 -30 14
-44 17 -26 27 -27 159 -2 28 5 73 9 100 9 97 2 110 33 79 181 -8 41 -20 100
-25 130 -5 30 -16 87 -24 127 -39 188 1 198 145 38 69 -75 131 -135 142 -135
3 0 35 -28 71 -63 35 -35 86 -81 112 -103 47 -38 50 -39 120 -37 40 1 84 7 99
13 15 5 54 10 86 10 32 0 62 5 65 10 8 13 -14 191 -25 205 -5 6 -18 62 -30
125 -11 63 -25 123 -31 132 -5 10 -9 30 -9 45 1 44 -30 233 -46 288 -8 28 -20
91 -27 140 l-13 90 -52 0 c-36 0 -56 5 -62 15 -15 23 10 294 32 357 8 21 8 36
3 42 -6 4 -58 -1 -120 -11z"/>
<path d="M3210 3460 c-21 -7 -22 -8 -5 -9 11 -1 31 -8 43 -17 20 -14 22 -23
22 -112 0 -53 5 -104 10 -112 5 -8 10 -13 10 -10 1 3 3 61 6 129 4 97 3 126
-8 132 -16 10 -44 10 -78 -1z"/>
<path d="M3950 3329 c-111 -10 -225 -51 -324 -117 -68 -46 -164 -135 -166
-153 0 -4 -13 -21 -30 -39 -16 -18 -30 -36 -30 -41 0 -12 -42 -73 -52 -77 -5
-2 -8 -12 -8 -22 0 -9 -6 -23 -14 -29 -52 -43 -56 -447 -6 -516 4 -5 11 -24
14 -41 4 -17 23 -55 41 -85 19 -29 35 -57 35 -61 0 -24 145 -149 233 -200 117
-68 184 -93 292 -106 161 -21 221 -16 330 28 11 4 38 13 61 19 47 12 107 56
211 151 83 76 136 149 136 188 0 31 -21 137 -33 167 -11 28 -29 143 -41 254
-5 52 -13 99 -18 105 -8 11 -15 44 -26 136 -12 93 -10 90 -64 90 -69 0 -74 10
-66 122 l7 94 -46 42 c-25 23 -52 42 -59 42 -8 0 -28 7 -46 16 -31 16 -188 45
-226 42 -11 0 -58 -5 -105 -9z m260 -451 c54 -29 73 -47 111 -104 52 -77 63
-115 61 -222 -1 -78 -21 -133 -69 -188 -14 -16 -36 -42 -49 -57 -29 -35 -131
-77 -188 -79 -114 -2 -198 31 -274 110 -63 64 -87 113 -97 195 -7 62 9 150 32
178 7 8 13 20 13 25 0 12 80 96 123 128 50 38 122 56 202 52 57 -3 82 -10 135
-38z"/>
<path d="M2767 3293 c-10 -10 -8 -106 3 -123 14 -23 22 -6 24 52 3 71 -6 93
-27 71z"/>
<path d="M3270 3155 c0 -14 5 -25 10 -25 6 0 10 11 10 25 0 14 -4 25 -10 25
-5 0 -10 -11 -10 -25z"/>
<path d="M2620 3079 c-19 -5 -107 -23 -195 -40 -88 -17 -177 -35 -198 -39 -63
-13 -66 -19 -79 -199 -11 -156 -11 -164 7 -177 12 -9 31 -12 50 -8 46 8 64
-18 80 -123 8 -48 21 -124 30 -168 9 -44 17 -113 18 -152 1 -40 5 -73 9 -73 5
0 8 -9 8 -20 0 -10 4 -29 10 -42 8 -21 32 -176 47 -313 3 -27 9 -54 13 -60 4
-5 11 -33 15 -62 8 -59 24 -78 59 -69 22 5 105 16 276 35 51 6 55 8 52 31 -1
14 -5 55 -8 93 l-7 67 26 0 c35 0 95 -29 102 -49 3 -9 16 -28 30 -43 22 -26
29 -28 103 -28 46 0 111 8 157 20 43 11 99 20 124 20 54 1 119 14 133 28 15
15 -6 40 -177 212 -95 95 -155 164 -155 175 0 11 19 40 43 65 54 57 78 95 68
106 -14 15 -42 114 -36 125 4 5 -3 29 -15 54 -17 35 -19 48 -10 65 9 16 8 25
-1 36 -8 10 -9 21 -1 41 6 16 16 69 22 118 7 50 19 111 27 137 17 54 15 59
-51 128 -86 89 -192 121 -406 119 -74 -1 -151 -5 -170 -10z m317 -379 c25 -11
54 -35 72 -61 26 -35 31 -51 31 -100 0 -60 -19 -95 -80 -144 -39 -31 -151 -53
-241 -46 -23 1 -36 43 -44 136 -3 44 -10 84 -15 90 -4 5 -11 31 -15 57 -8 53
-15 46 85 81 54 19 145 13 207 -13z"/>
<path d="M7560 2479 c-19 -5 -71 -13 -115 -19 -159 -21 -197 -29 -222 -45 -28
-19 -28 -25 1 -170 9 -44 18 -98 20 -120 8 -92 19 -156 27 -161 5 -3 9 -16 9
-29 0 -13 5 -27 10 -30 14 -9 13 -58 -2 -73 -25 -25 -37 -17 -99 58 -18 23
-42 52 -52 63 -88 107 -368 397 -383 397 -6 0 -31 -15 -55 -34 -71 -54 -205
-115 -268 -122 -31 -3 -64 -11 -72 -18 -11 -7 -20 -45 -29 -119 -7 -59 -17
-110 -22 -113 -17 -10 14 -34 44 -34 16 0 37 -4 47 -9 27 -15 50 -102 66 -249
8 -74 18 -139 23 -145 5 -7 12 -41 16 -77 9 -85 15 -127 27 -170 5 -19 9 -47
9 -63 0 -15 4 -35 10 -45 10 -18 40 -220 40 -270 0 -16 8 -40 19 -53 17 -21
21 -22 58 -11 22 7 57 12 77 12 64 0 241 30 254 44 11 10 10 35 -4 137 -9 68
-20 129 -24 134 -4 6 -15 62 -24 125 -10 63 -24 129 -32 146 -9 17 -14 46 -12
65 5 56 32 50 96 -22 32 -34 79 -85 107 -113 27 -28 70 -73 94 -101 24 -27 71
-79 105 -115 34 -36 72 -79 86 -95 14 -17 38 -40 54 -52 32 -25 28 -25 220 8
60 10 123 19 141 19 17 0 41 7 54 16 26 18 25 35 -3 174 -9 41 -21 113 -27
160 -6 47 -15 90 -19 95 -4 6 -10 39 -14 75 -6 60 -18 156 -32 255 -3 22 -9
49 -14 60 -4 11 -13 63 -19 115 -19 153 -33 234 -42 246 -6 7 -17 67 -26 135
-9 68 -20 130 -26 137 -11 14 -26 14 -77 1z"/>
<path d="M6185 2158 c-63 -20 -198 -46 -275 -54 -25 -3 -96 -15 -157 -26 -107
-21 -115 -21 -164 -6 -82 27 -85 23 -99 -133 -4 -52 -12 -111 -18 -131 -12
-47 -1 -59 52 -52 64 9 76 -11 98 -169 11 -72 22 -159 25 -192 3 -33 9 -65 14
-71 9 -11 42 -225 44 -285 0 -20 6 -43 13 -51 6 -8 20 -78 29 -156 24 -189 9
-181 258 -131 105 21 208 38 230 38 23 1 65 7 95 15 30 8 83 17 117 21 34 4
67 13 73 20 23 27 4 300 -22 316 -17 11 -63 11 -129 -1 -271 -49 -289 -47
-289 25 0 22 -7 49 -15 59 -20 27 -20 92 1 100 9 3 41 9 72 12 32 3 79 12 106
20 27 8 66 14 87 14 65 0 80 21 86 130 3 52 1 111 -4 130 -9 34 -10 35 -66 38
-33 2 -108 -7 -181 -23 -168 -34 -173 -34 -185 13 -6 20 -13 63 -17 94 l-7 58
37 15 c20 9 85 21 144 27 59 6 111 15 117 20 6 5 5 16 -3 28 -14 23 -16 82 -3
95 13 13 17 194 5 204 -5 4 -36 -1 -69 -11z"/>
<path d="M5207 2073 c-4 -3 -7 -20 -7 -37 0 -39 -8 -49 -45 -63 -80 -30 -363
-80 -390 -69 -9 3 -23 22 -31 41 -16 40 -20 41 -106 19 -124 -32 -131 -41
-144 -204 -13 -163 -12 -184 11 -188 60 -9 62 -10 69 -58 3 -26 11 -53 17 -60
5 -7 11 -32 13 -56 6 -75 37 -272 46 -293 5 -11 14 -63 20 -115 14 -118 30
-201 43 -218 7 -9 7 -16 -1 -24 -6 -6 -7 -17 -2 -27 10 -18 40 -167 40 -199 0
-15 8 -24 27 -28 24 -6 202 19 347 48 l58 13 -5 40 c-3 22 -13 85 -21 140 -19
125 -20 185 -3 185 15 0 100 -86 117 -120 7 -14 19 -29 26 -33 7 -4 20 -22 29
-40 8 -18 32 -54 51 -81 36 -48 36 -48 82 -43 26 3 78 13 117 21 38 9 84 16
101 16 18 0 38 8 48 19 16 17 16 23 3 63 -8 23 -18 59 -22 78 -4 19 -16 50
-27 68 -16 26 -18 35 -8 47 10 13 8 15 -14 15 -15 0 -25 4 -22 9 4 5 3 16 0
25 -5 13 -10 14 -20 5 -11 -9 -16 -6 -23 12 -5 13 -27 44 -50 69 -53 59 -53
85 -1 130 57 49 80 92 80 149 0 26 -4 51 -9 57 -5 5 -14 43 -20 84 -33 211
-33 212 -110 204 -31 -4 -52 -1 -65 8 -17 14 -17 19 -1 144 9 71 19 145 21
166 5 31 2 38 -17 49 -55 29 -185 50 -202 32z m42 -399 c43 -17 80 -59 105
-118 20 -49 21 -110 1 -126 -8 -7 -15 -18 -15 -24 0 -16 -36 -45 -74 -61 -17
-7 -70 -15 -118 -19 -82 -7 -87 -6 -102 16 -9 12 -16 36 -16 52 0 39 -20 146
-31 168 -32 62 10 95 146 116 33 5 61 10 62 11 2 0 20 -6 42 -15z"/>
<path d="M3726 1784 c-69 -24 -133 -60 -195 -111 -77 -62 -159 -151 -186 -200
-15 -29 -32 -53 -36 -53 -4 0 -13 -17 -20 -37 -7 -21 -19 -49 -28 -62 -23 -36
-29 -256 -8 -302 8 -19 18 -56 22 -84 4 -27 13 -60 21 -72 8 -12 14 -32 14
-43 0 -11 7 -23 15 -26 8 -4 15 -10 15 -16 0 -21 116 -186 156 -221 40 -35
141 -107 150 -107 3 0 22 -11 43 -25 78 -48 347 -82 450 -56 20 5 62 15 94 21
32 6 85 27 118 46 34 19 63 34 66 34 8 0 87 64 96 77 4 7 12 13 18 13 15 0 99
92 99 109 0 9 -6 43 -14 76 -8 33 -17 84 -20 113 -4 30 -11 61 -16 70 -13 24
-29 136 -40 270 -5 62 -15 122 -22 135 -7 12 -15 51 -18 87 -5 65 -5 65 -37
68 -39 4 -82 54 -64 75 5 7 13 42 17 78 l6 66 -58 27 c-107 51 -130 57 -213
48 -133 -13 -274 -5 -335 18 -15 5 -43 1 -90 -16z m436 -378 c60 -27 158 -115
158 -141 0 -4 12 -32 26 -63 35 -76 30 -144 -18 -237 -27 -55 -46 -76 -105
-121 -104 -78 -190 -93 -312 -52 -54 19 -77 34 -123 82 -77 79 -91 112 -96
224 -5 106 3 132 62 210 32 44 54 60 115 88 126 59 183 60 293 10z"/>
<path d="M3334 1625 c-21 -14 -99 -33 -249 -60 -107 -20 -107 -20 -151 20 -49
45 -62 44 -60 -1 1 -50 -30 -71 -130 -89 -43 -8 -104 -20 -134 -26 -30 -6 -82
-16 -115 -23 -56 -10 -60 -13 -63 -41 -2 -17 -6 -37 -9 -45 -11 -26 -31 -192
-25 -212 4 -18 11 -19 56 -14 28 4 94 15 146 26 111 22 274 50 294 50 8 0 20
-16 26 -35 13 -41 35 -55 84 -55 31 0 35 -3 41 -32 4 -18 15 -62 26 -97 10
-35 19 -85 19 -111 0 -27 4 -51 9 -55 15 -9 7 -72 -12 -92 -16 -18 -15 -21 8
-55 14 -21 25 -44 25 -52 0 -9 9 -32 19 -53 11 -21 22 -69 26 -107 4 -38 12
-80 18 -93 13 -29 -7 -73 -34 -73 -38 0 -48 -11 -42 -43 14 -73 28 -78 136
-52 34 8 109 21 167 28 l105 13 -2 65 c-2 35 -7 73 -12 84 -5 11 -15 39 -22
63 -8 29 -30 60 -66 95 -30 29 -63 68 -74 87 -10 19 -23 42 -28 50 -5 8 -19
35 -32 60 -12 25 -29 58 -37 73 -13 27 -27 80 -53 202 -12 58 -6 229 9 247 5
7 21 47 34 88 31 99 57 144 117 210 28 30 51 58 51 63 0 12 -45 8 -66 -8z"/>
<path d="M2880 1033 c1 -16 7 -41 14 -58 15 -36 5 -67 -29 -85 -37 -20 -72 -6
-78 32 -18 104 -14 98 -70 98 l-50 0 6 -71 c6 -65 4 -73 -16 -90 -12 -10 -27
-18 -33 -19 -22 0 -42 36 -49 90 -4 30 -14 59 -21 65 -8 5 -39 8 -69 7 -55 -4
-55 -4 -55 -37 0 -28 8 -52 50 -150 5 -11 11 -42 14 -70 4 -27 10 -53 14 -57
4 -4 32 -12 61 -18 52 -10 53 -9 85 24 24 26 42 35 76 39 25 3 90 10 145 16
54 7 117 17 138 23 l39 12 -7 70 c-4 39 -13 82 -21 98 -8 15 -14 38 -14 52 0
49 -8 56 -71 56 -58 0 -59 -1 -59 -27z"/>
<path d="M2900 700 c-19 -5 -68 -14 -107 -21 -65 -11 -75 -16 -95 -45 -19 -28
-30 -34 -68 -36 -44 -3 -45 -4 -77 -67 -29 -57 -32 -69 -26 -125 3 -33 9 -65
14 -70 5 -6 9 -22 9 -36 0 -37 25 -55 97 -70 68 -14 93 -6 93 30 0 20 11 23
190 55 233 41 233 41 206 99 -9 19 -16 51 -16 73 0 76 -57 162 -137 206 -34
19 -33 18 -83 7z m22 -149 c17 -19 28 -43 28 -60 0 -33 -26 -43 -157 -62 -106
-15 -117 -11 -110 42 10 75 78 121 167 114 35 -2 50 -10 72 -34z"/>
</g>
</svg>
